nombre de archivo data/foco.bmp
fecha: 2021-07-15

info:


length de la mask: 1024 x 768
x0 = -2250.600000 *um, x1 = 2250.600000 *um, Deltax = 4.400000 *um
y0 = -1687.400000 *um, y1 = 1687.400000 *um, Deltay = 4.400000 *um

longitud de onda = 0.000633 *um